<?xml version="1.0" encoding="UTF-8" standalone="no"?>
<svg width="320px" height="404px" viewBox="0 0 320 404" version="1.1" xmlns="http://www.w3.org/2000/svg" xmlns:xlink="http://www.w3.org/1999/xlink" xmlns:sketch="http://www.bohemiancoding.com/sketch/ns">
    <!-- Generator: Sketch 3.3.2 (12043) - http://www.bohemiancoding.com/sketch -->
    <title>Gallery</title>
    <desc>Created with Sketch.</desc>
    <defs></defs>
    <g id="Page-1" stroke="none" stroke-width="1" fill="none" fill-rule="evenodd" sketch:type="MSPage">
        <g id="Phone---Photo-Gallery" sketch:type="MSArtboardGroup" transform="translate(0.000000, -131.000000)">
            <g id="Gallery" sketch:type="MSLayerGroup" transform="translate(-0.000000, 132.000000)">
                <text id="God-transvaluation-d" sketch:type="MSTextLayer" font-family="Letter Gothic Std" font-size="12.8000002" font-weight="420" sketch:alignment="middle" line-spacing="17" fill="#000000">
                    <tspan x="63.9999986" y="276.828">God transvaluation derive </tspan>
                    <tspan x="48.6399983" y="296.828">intentions intentions joy of. </tspan>
                    <tspan x="48.6399983" y="316.828">Inexpedient christian disgust </tspan>
                    <tspan x="40.9599982" y="336.828">horror dead deceptions grandeur </tspan>
                    <tspan x="33.2799981" y="356.828">marvelous abstract faith ultimate </tspan>
                    <tspan x="33.2799981" y="376.828">sea deceptions. Disgust mountains </tspan>
                    <tspan x="83.1999989" y="396.828">noble prejudice law.</tspan>
                </text>
                <g id="Gall-focus">
                    <g id="GallImgLrgImg" transform="translate(0.545455, 0.000000)" sketch:type="MSShapeGroup">
                        <rect id="Rectangle-2" stroke="#686868" fill="#FFFFFF" x="0" y="0" width="320" height="246"></rect>
                        <path d="M0.421052632,0.191887676 L319.578947,245.424337" id="Line" stroke="#777777" stroke-linecap="square"></path>
                        <path d="M0.140350877,245.424337 L319.859649,0.191887676" id="Line-Copy" stroke="#777777" stroke-linecap="square"></path>
                    </g>
                    <g id="next-(rectangle)-(pressed)" transform="translate(309.875781, 125.000000) scale(-1, 1) translate(-309.875781, -125.000000) translate(299.375781, 107.000000)" sketch:type="MSShapeGroup">
                        <rect id="Rectangle-47" stroke="#BBBDBF" fill="#F1F1F2" transform="translate(10.395820, 17.923828) scale(-1, 1) translate(-10.395820, -17.923828) " x="0" y="0" width="20.7916406" height="35.8476562" rx="3"></rect>
                        <path d="M12.3315937,14.3390625 L7.88648437,18.7841719 L12.3315937,23.3009766" id="Shape-4" stroke="#D0D2D3" stroke-width="2"></path>
                    </g>
                    <g id="prev-(rectangle)-(pressed)" transform="translate(1.000000, 107.000000)" sketch:type="MSShapeGroup">
                        <rect id="Rectangle-47" stroke="#BBBDBF" fill="#F1F1F2" x="0" y="0" width="20.7916406" height="35.8476562" rx="3"></rect>
                        <path d="M12.3315937,14.3390625 L7.88648437,18.7841719 L12.3315937,23.3009766" id="Shape-4" stroke="#D0D2D3" stroke-width="2"></path>
                    </g>
                    <g id="Number-Legend" transform="translate(9.000000, 219.000000)">
                        <rect id="Rectangle-540" fill-opacity="0.850000024" fill="#D8D8D8" sketch:type="MSShapeGroup" x="0" y="0" width="35" height="19"></rect>
                        <text id="1/24" sketch:type="MSTextLayer" font-family="Futura" font-size="12" font-weight="313" fill="#878787">
                            <tspan x="4" y="14">1/24</tspan>
                        </text>
                    </g>
                </g>
            </g>
        </g>
    </g>
</svg>