<?xml version="1.0" encoding="UTF-8" standalone="no"?>
<svg width="16px" height="14px" viewBox="0 0 16 14" version="1.1" xmlns="http://www.w3.org/2000/svg" xmlns:xlink="http://www.w3.org/1999/xlink" xmlns:sketch="http://www.bohemiancoding.com/sketch/ns">
    <!-- Generator: Sketch 3.3.1 (12002) - http://www.bohemiancoding.com/sketch -->
    <title>List Icon Copy</title>
    <desc>Created with Sketch.</desc>
    <defs></defs>
    <g id="Page-1" stroke="none" stroke-width="1" fill="none" fill-rule="evenodd" sketch:type="MSPage">
        <g id="Phone---Book-Tickets" sketch:type="MSArtboardGroup" transform="translate(-177.000000, -347.000000)">
            <g id="Filters" sketch:type="MSLayerGroup" transform="translate(10.000000, 138.000000)">
                <g id="View-selector-Copy" transform="translate(0.000000, 198.000000)" sketch:type="MSShapeGroup">
                    <g id="List-Button" transform="translate(161.000000, 5.000000)">
                        <g id="List-Icon-Copy" transform="translate(6.583844, 6.211458)">
                            <path d="M4.3425117,12.0685185 L13.7512871,12.0685185" id="Line-Copy-3" stroke="#000000" stroke-width="1.77777778" stroke-linecap="square"></path>
                            <ellipse id="Oval-2-Copy-2" fill="#000000" cx="1.4475039" cy="12.0685185" rx="1.4475039" ry="1.50856481"></ellipse>
                            <path d="M4.3425117,6.78854167 L13.7512871,6.78854167" id="Line-Copy-2" stroke="#000000" stroke-width="1.77777778" stroke-linecap="square"></path>
                            <ellipse id="Oval-2-Copy" fill="#000000" cx="1.4475039" cy="6.78854167" rx="1.4475039" ry="1.50856481"></ellipse>
                            <path d="M4.3425117,1.50856481 L13.7512871,1.50856481" id="Line" stroke="#000000" stroke-width="1.77777778" stroke-linecap="square"></path>
                            <ellipse id="Oval-2" fill="#000000" cx="1.4475039" cy="1.50856481" rx="1.4475039" ry="1.50856481"></ellipse>
                        </g>
                    </g>
                </g>
            </g>
        </g>
    </g>
</svg>