[
    {
        "theatre" : "Royal Shakespeare Theatre",
        "place" : "Stratford-upon-Avon",
        "date" : "07/11/2015",
        "stratford" : 1,
        "evening" : 1,
        "time" : "7.15pm",
        "extrainfo" : "",
        "buytickets" : "wendy/buy-tickets.html"
    }, {
        "theatre" : "Royal Shakespeare Theatre",
        "place" : "Stratford-upon-Avon",
        "date" : "09/11/2015",
        "stratford" : 1,
        "evening" : 1,
        "time" : "7.15pm",
        "extrainfo" : "Pre Show Event",
        "buytickets" : "wendy/buy-tickets.html"
    }, {
        "theatre" : "Royal Shakespeare Theatre",
        "place" : "Stratford-upon-Avon",
        "date" : "11/11/2015",
        "stratford" : 1,
        "evening" : 1,
        "time" : "7.00pm",
        "extrainfo" : "",
        "buytickets" : "wendy/buy-tickets.html"
    }, {
        "theatre" : "Royal Shakespeare Theatre",
        "place" : "Stratford-upon-Avon",
        "date" : "12/11/2015",
        "stratford" : 1,
        "evening" : 1,
        "time" : "7.15pm",
        "extrainfo" : "",
        "buytickets" : "wendy/buy-tickets.html"
    }, {
        "theatre" : "Royal Shakespeare Theatre",
        "place" : "Stratford-upon-Avon",
        "date" : "13/11/2015",
        "stratford" : 1,
        "evening" : 1,
        "time" : "7.15pm",
        "extrainfo" : "",
        "buytickets" : "wendy/buy-tickets.html"
    }, {
        "theatre" : "Royal Shakespeare Theatre",
        "place" : "Stratford-upon-Avon",
        "date" : "14/11/2015",
        "matinee" : 1,
        "stratford" : 1,
        "time" : "7.15pm",
        "extrainfo" : "",
        "buytickets" : "wendy/buy-tickets.html"
    }, {
        "theatre" : "Royal Shakespeare Theatre",
        "place" : "Stratford-upon-Avon",
        "date" : "17/11/2015",
        "stratford" : 1,
        "evening" : 1,
        "time" : "7.15pm",
        "extrainfo" : "",
        "buytickets" : "wendy/buy-tickets.html"
    }, {
        "theatre" : "Royal Shakespeare Theatre",
        "place" : "Stratford-upon-Avon",
        "date" : "18/11/2015",
        "stratford" : 1,
        "evening" : 1,
        "time" : "7.15pm",
        "extrainfo" : "",
        "buytickets" : "wendy/buy-tickets.html"
    }, {
        "theatre" : "Royal Shakespeare Theatre",
        "place" : "Stratford-upon-Avon",
        "date" : "19/11/2015",
        "matinee" : 1,
        "stratford" : 1,
        "time" : "7.15pm",
        "extrainfo" : "",
        "buytickets" : "wendy/buy-tickets.html"
    }, {
        "theatre" : "Royal Shakespeare Theatre",
        "place" : "Stratford-upon-Avon",
        "date" : "20/11/2015",
        "stratford" : 1,
        "evening" : 1,
        "time" : "7.15pm",
        "extrainfo" : "",
        "buytickets" : "wendy/buy-tickets.html"
    }, {
        "theatre" : "Royal Shakespeare Theatre",
        "place" : "Stratford-upon-Avon",
        "date" : "21/11/2015",
        "matinee" : 1,
        "stratford" : 1,
        "time" : "7.15pm",
        "extrainfo" : "",
        "buytickets" : "wendy/buy-tickets.html"
    }, {
        "theatre" : "Royal Shakespeare Theatre",
        "place" : "Stratford-upon-Avon",
        "date" : "23/11/2015",
        "stratford" : 1,
        "evening" : 1,
        "time" : "7.15pm",
        "extrainfo" : "",
        "buytickets" : "wendy/buy-tickets.html"
    }, {
        "theatre" : "Royal Shakespeare Theatre",
        "place" : "Stratford-upon-Avon",
        "date" : "24/11/2015",
        "stratford" : 1,
        "evening" : 1,
        "time" : "7.15pm",
        "extrainfo" : "",
        "buytickets" : "wendy/buy-tickets.html"
    }, {
        "theatre" : "Royal Shakespeare Theatre",
        "place" : "Stratford-upon-Avon",
        "date" : "25/11/2015",
        "stratford" : 1,
        "evening" : 1,
        "time" : "7.15pm",
        "extrainfo" : "",
        "buytickets" : "wendy/buy-tickets.html"
    }, {
        "theatre" : "Royal Shakespeare Theatre",
        "place" : "Stratford-upon-Avon",
        "date" : "26/11/2015",
        "stratford" : 1,
        "evening" : 1,
        "time" : "7.15pm",
        "extrainfo" : "",
        "buytickets" : "wendy/buy-tickets.html"
    }, {
        "theatre" : "Royal Shakespeare Theatre",
        "place" : "Stratford-upon-Avon",
        "date" : "27/11/2015",
        "stratford" : 1,
        "evening" : 1,
        "time" : "7.15pm",
        "extrainfo" : "",
        "buytickets" : "wendy/buy-tickets.html"
    }, {
        "theatre" : "Royal Shakespeare Theatre",
        "place" : "Stratford-upon-Avon",
        "date" : "28/11/2015",
        "matinee" : 1,
        "stratford" : 1,
        "time" : "7.15pm",
        "extrainfo" : "",
        "buytickets" : "wendy/buy-tickets.html"
    }, {
        "theatre" : "Royal Shakespeare Theatre",
        "place" : "Stratford-upon-Avon",
        "date" : "27/11/2015",
        "stratford" : 1,
        "evening" : 1,
        "time" : "7.15pm",
        "extrainfo" : "",
        "buytickets" : "wendy/buy-tickets.html"
    }, {
        "theatre" : "Royal Shakespeare Theatre",
        "place" : "Stratford-upon-Avon",
        "date" : "30/11/2015",
        "stratford" : 1,
        "evening" : 1,
        "time" : "7.15pm",
        "extrainfo" : "",
        "buytickets" : "wendy/buy-tickets.html"
    }, {
        "theatre" : "Royal Shakespeare Theatre",
        "place" : "Stratford-upon-Avon",
        "date" : "01/12/2015",
        "stratford" : 1,
        "evening" : 1,
        "time" : "7.15pm",
        "extrainfo" : "",
        "buytickets" : "wendy/buy-tickets.html"
    }, {
        "theatre" : "Royal Shakespeare Theatre",
        "place" : "Stratford-upon-Avon",
        "date" : "02/12/2015",
        "stratford" : 1,
        "evening" : 1,
        "time" : "7.15pm",
        "extrainfo" : "",
        "buytickets" : "wendy/buy-tickets.html"
    }, {
        "theatre" : "Royal Shakespeare Theatre",
        "place" : "Stratford-upon-Avon",
        "date" : "03/12/2015",
        "stratford" : 1,
        "evening" : 1,
        "time" : "7.15pm",
        "extrainfo" : "",
        "buytickets" : "wendy/buy-tickets.html"
    }
    , {
        "theatre" : "Royal Shakespeare Theatre",
        "place" : "Stratford-upon-Avon",
        "date" : "04/12/2015",
        "stratford" : 1,
        "evening" : 1,
        "time" : "7.15pm",
        "extrainfo" : "",
        "buytickets" : "wendy/buy-tickets.html"
    }
]