[
    {
        "theatre" : "Royal Shakespeare Theatre",
        "place" : "Stratford-upon-Avon",
        "date" : "15/06/2015",
        "stratford" : 1,
        "evening" : 1,
        "time" : "7.15pm",
        "extrainfo" : "",
        "buytickets" : "othello/buy-tickets.html"
    }, {
        "theatre" : "Royal Shakespeare Theatre",
        "place" : "Stratford-upon-Avon",
        "date" : "16/06/2015",
        "stratford" : 1,
        "evening" : 1,
        "time" : "7.15pm",
        "extrainfo" : "",
        "buytickets" : "othello/buy-tickets.html"
    }, {
        "theatre" : "Royal Shakespeare Theatre",
        "place" : "Stratford-upon-Avon",
        "date" : "20/06/2015",
        "matinee" : 1,
        "stratford" : 1,
        "time" : "7.15pm",
        "extrainfo" : "",
        "buytickets" : "othello/buy-tickets.html"
    }, {
        "theatre" : "Royal Shakespeare Theatre",
        "place" : "Stratford-upon-Avon",
        "date" : "22/06/2015",
        "stratford" : 1,
        "evening" : 1,
        "time" : "7.15pm",
        "extrainfo" : "",
        "buytickets" : "othello/buy-tickets.html"
    }, {
        "theatre" : "Royal Shakespeare Theatre",
        "place" : "Stratford-upon-Avon",
        "date" : "23/06/2015",
        "matinee" : 1,
        "stratford" : 1,
        "time" : "7.15pm",
        "extrainfo" : "",
        "buytickets" : "othello/buy-tickets.html"
    }, {
        "theatre" : "Royal Shakespeare Theatre",
        "place" : "Stratford-upon-Avon",
        "date" : "25/06/2015",
        "stratford" : 1,
        "evening" : 1,
        "time" : "7.15pm",
        "extrainfo" : "",
        "buytickets" : "othello/buy-tickets.html"
    }, {
        "theatre" : "Royal Shakespeare Theatre",
        "place" : "Stratford-upon-Avon",
        "date" : "26/06/2015",
        "stratford" : 1,
        "evening" : 1,
        "time" : "7.15pm",
        "extrainfo" : "",
        "buytickets" : "othello/buy-tickets.html"
    }, {
        "theatre" : "Royal Shakespeare Theatre",
        "place" : "Stratford-upon-Avon",
        "date" : "2/07/2015",
        "stratford" : 1,
        "evening" : 1,
        "time" : "7.15pm",
        "extrainfo" : "",
        "buytickets" : "othello/buy-tickets.html"
    }, {
        "theatre" : "Royal Shakespeare Theatre",
        "place" : "Stratford-upon-Avon",
        "date" : "3/07/2015",
        "stratford" : 1,
        "evening" : 1,
        "time" : "7.15pm",
        "extrainfo" : "",
        "buytickets" : "othello/buy-tickets.html"
    }, {
        "theatre" : "Royal Shakespeare Theatre",
        "place" : "Stratford-upon-Avon",
        "date" : "4/07/2015",
        "matinee" : 1,
        "stratford" : 1,
        "time" : "7.15pm",
        "extrainfo" : "",
        "buytickets" : "othello/buy-tickets.html"
    }, {
        "theatre" : "Royal Shakespeare Theatre",
        "place" : "Stratford-upon-Avon",
        "date" : "7/07/2015",
        "stratford" : 1,
        "evening" : 1,
        "time" : "7.15pm",
        "extrainfo" : "",
        "buytickets" : "othello/buy-tickets.html"
    }, {
        "theatre" : "Royal Shakespeare Theatre",
        "place" : "Stratford-upon-Avon",
        "date" : "8/07/2015",
        "stratford" : 1,
        "evening" : 1,
        "time" : "7.15pm",
        "extrainfo" : "",
        "buytickets" : "othello/buy-tickets.html"
    }, {
        "theatre" : "Royal Shakespeare Theatre",
        "place" : "Stratford-upon-Avon",
        "date" : "9/07/2015",
        "matinee" : 1,
        "stratford" : 1,
        "time" : "7.15pm",
        "extrainfo" : "",
        "buytickets" : "othello/buy-tickets.html"
    }, {
        "theatre" : "Royal Shakespeare Theatre",
        "place" : "Stratford-upon-Avon",
        "date" : "11/07/2015",
        "stratford" : 1,
        "evening" : 1,
        "time" : "7.15pm",
        "extrainfo" : "",
        "buytickets" : "othello/buy-tickets.html"
    }, {
        "theatre" : "Royal Shakespeare Theatre",
        "place" : "Stratford-upon-Avon",
        "date" : "14/07/2015",
        "stratford" : 1,
        "evening" : 1,
        "time" : "7.15pm",
        "extrainfo" : "",
        "buytickets" : "othello/buy-tickets.html"
    }, {
        "theatre" : "Royal Shakespeare Theatre",
        "place" : "Stratford-upon-Avon",
        "date" : "15/07/2015",
        "stratford" : 1,
        "evening" : 1,
        "time" : "7.15pm",
        "extrainfo" : "",
        "buytickets" : "othello/buy-tickets.html"
    }, {
        "theatre" : "Royal Shakespeare Theatre",
        "place" : "Stratford-upon-Avon",
        "date" : "18/07/2015",
        "stratford" : 1,
        "evening" : 1,
        "time" : "7.15pm",
        "extrainfo" : "",
        "buytickets" : "othello/buy-tickets.html"
    }, {
        "theatre" : "Royal Shakespeare Theatre",
        "place" : "Stratford-upon-Avon",
        "date" : "20/07/2015",
        "stratford" : 1,
        "evening" : 1,
        "time" : "7.15pm",
        "extrainfo" : "",
        "buytickets" : "othello/buy-tickets.html"
    }, {
        "theatre" : "Royal Shakespeare Theatre",
        "place" : "Stratford-upon-Avon",
        "date" : "21/07/2015",
        "matinee" : 1,
        "stratford" : 1,
        "time" : "7.15pm",
        "extrainfo" : "",
        "buytickets" : "othello/buy-tickets.html"
    }, {
        "theatre" : "Royal Shakespeare Theatre",
        "place" : "Stratford-upon-Avon",
        "date" : "22/07/2015",
        "stratford" : 1,
        "evening" : 1,
        "time" : "7.00pm",
        "extrainfo" : "",
        "buytickets" : "othello/buy-tickets.html"
    }, {
        "theatre" : "Royal Shakespeare Theatre",
        "place" : "Stratford-upon-Avon",
        "date" : "28/07/2015",
        "stratford" : 1,
        "evening" : 1,
        "time" : "7.15pm",
        "extrainfo" : "",
        "buytickets" : "othello/buy-tickets.html"
    }, {
        "theatre" : "Royal Shakespeare Theatre",
        "place" : "Stratford-upon-Avon",
        "date" : "29/07/2015",
        "stratford" : 1,
        "evening" : 1,
        "time" : "7.15pm",
        "extrainfo" : "",
        "buytickets" : "othello/buy-tickets.html"
    }, {
        "theatre" : "Royal Shakespeare Theatre",
        "place" : "Stratford-upon-Avon",
        "date" : "30/07/2015",
        "matinee" : 1,
        "stratford" : 1,
        "time" : "7.15pm",
        "extrainfo" : "",
        "buytickets" : "othello/buy-tickets.html"
    }
]